Pipelined Version/pipeline_tb.vcd
$date
	Tue Oct 27 16:59:21 2015
$end
$version
	Icarus Verilog
$end
$timescale
	1ps
$end
$scope module mips_pipeline_tb $end
$var reg 1 ! ce $end
$var reg 1 " clk $end
$scope module uut $end
$var wire 1 ! ce $end
$var wire 1 " clk $end
$var wire 1 # zero_out $end
$var wire 1 $ zero $end
$var wire 5 % writereg_out_wb_reg [4:0] $end
$var wire 5 & writereg_out [4:0] $end
$var wire 2 ' wb_out_mem [1:0] $end
$var wire 2 ( wb_out [1:0] $end
$var wire 1 ) sel $end
$var wire 5 * rt_out_ex [4:0] $end
$var wire 5 + rt_out [4:0] $end
$var wire 5 , rt [4:0] $end
$var wire 5 - rs_out [4:0] $end
$var wire 5 . rs [4:0] $end
$var wire 1 / regwrite $end
$var wire 1 0 regdst $end
$var wire 32 1 reg2_out_mem [31:0] $end
$var wire 32 2 reg2_out [31:0] $end
$var wire 32 3 reg2 [31:0] $end
$var wire 32 4 reg1_out [31:0] $end
$var wire 32 5 reg1 [31:0] $end
$var wire 32 6 rdata [31:0] $end
$var wire 5 7 rd_out_ex [4:0] $end
$var wire 5 8 rd_out [4:0] $end
$var wire 5 9 rd [4:0] $end
$var wire 32 : radata_out [31:0] $end
$var wire 1 ; pcwrite $end
$var wire 32 < pcout [31:0] $end
$var wire 32 = pcin [31:0] $end
$var wire 32 > pc_plus4_out [31:0] $end
$var wire 32 ? pc_plus4_ex [31:0] $end
$var wire 32 @ pc_plus4 [31:0] $end
$var wire 9 A out [8:0] $end
$var wire 6 B opcode_out [5:0] $end
$var wire 6 C opcode [5:0] $end
$var wire 1 D memwrite $end
$var wire 1 E memtoreg $end
$var wire 1 F memread $end
$var wire 3 G m_out [2:0] $end
$var wire 32 H instr_32_ex [31:0] $end
$var wire 32 I instr_32 [31:0] $end
$var wire 16 J imm_16 [15:0] $end
$var wire 16 K imm [15:0] $end
$var wire 1 L if_id_write $end
$var wire 6 M func_out [5:0] $end
$var wire 6 N func [5:0] $end
$var wire 9 O ctrl [8:0] $end
$var wire 32 P branch_addr [31:0] $end
$var wire 1 Q branch $end
$var wire 1 R alusrc $end
$var wire 32 S aluout_wb [31:0] $end
$var wire 32 T aluout_mem [31:0] $end
$var wire 32 U aluout [31:0] $end
$var wire 2 V aluop [1:0] $end
$var wire 4 W aluctrl [3:0] $end
$var reg 32 X alub_sel [31:0] $end
$var reg 32 Y mux_writeback_data [31:0] $end
$var reg 5 Z regdst_mux [4:0] $end
$scope module alucontrol_ut $end
$var wire 6 [ funcode [5:0] $end
$var wire 2 \ aluop [1:0] $end
$var reg 4 ] aluctrl [3:0] $end
$upscope $end
$scope module control $end
$var wire 6 ^ opcode [5:0] $end
$var reg 2 _ aluop [1:0] $end
$var reg 1 ` alusrc $end
$var reg 1 a branch $end
$var reg 9 b ctrl [8:0] $end
$var reg 1 c memread $end
$var reg 1 d memtoreg $end
$var reg 1 e memwrite $end
$var reg 1 f regdst $end
$var reg 1 g regwrite $end
$upscope $end
$scope module datamem_ut $end
$var wire 1 ! ce $end
$var wire 1 " clk $end
$var wire 32 h wrdata [31:0] $end
$var wire 32 i rdata [31:0] $end
$var wire 1 D memwrite $end
$var wire 1 F memread $end
$var wire 32 j addr [31:0] $end
$upscope $end
$scope module ex_mem_reg_ut $end
$var wire 1 ! ce $end
$var wire 1 " clk $end
$var wire 5 k writereg [4:0] $end
$var wire 1 $ zero $end
$var wire 2 l wb [1:0] $end
$var wire 32 m readreg_rt [31:0] $end
$var wire 3 n m [2:0] $end
$var wire 32 o alu_in [31:0] $end
$var reg 32 p alu_out [31:0] $end
$var reg 1 Q branch $end
$var reg 1 F memread $end
$var reg 1 D memwrite $end
$var reg 32 q readreg_rt_out [31:0] $end
$var reg 2 r wb_out [1:0] $end
$var reg 5 s writereg_out [4:0] $end
$var reg 1 # zero_out $end
$upscope $end
$scope module hazard_detection_ut $end
$var wire 5 t if_id_rt [4:0] $end
$var wire 5 u if_id_rs [4:0] $end
$var wire 5 v id_ex_rt [4:0] $end
$var wire 3 w id_ex_memread [2:0] $end
$var reg 1 L if_id_write $end
$var reg 1 ) mux_bubble $end
$var reg 1 ; pcwrite $end
$upscope $end
$scope module id_ex_reg_ut $end
$var wire 1 ! ce $end
$var wire 1 " clk $end
$var wire 9 x ctrl [8:0] $end
$var wire 5 y rt [4:0] $end
$var wire 32 z regdata_rt [31:0] $end
$var wire 32 { regdata_rs [31:0] $end
$var wire 5 | rd [4:0] $end
$var wire 32 } pc [31:0] $end
$var wire 32 ~ imm [31:0] $end
$var reg 2 !" aluop [1:0] $end
$var reg 1 R alusrc $end
$var reg 32 "" imm_out [31:0] $end
$var reg 3 #" m_out [2:0] $end
$var reg 32 $" pcout [31:0] $end
$var reg 5 %" rd_out [4:0] $end
$var reg 32 &" regdata_rs_out [31:0] $end
$var reg 32 '" regdata_rt_out [31:0] $end
$var reg 1 0 regdst $end
$var reg 5 (" rt_out [4:0] $end
$var reg 2 )" wb_out [1:0] $end
$upscope $end
$scope module ifid $end
$var wire 1 ! ce $end
$var wire 1 " clk $end
$var wire 1 L if_id_write $end
$var wire 5 *" rt [4:0] $end
$var wire 5 +" rs [4:0] $end
$var wire 5 ," rd [4:0] $end
$var wire 32 -" pc_plus4_in [31:0] $end
$var wire 6 ." opcode [5:0] $end
$var wire 16 /" imm [15:0] $end
$var wire 6 0" func [5:0] $end
$var reg 6 1" func_out [5:0] $end
$var reg 16 2" imm_out [15:0] $end
$var reg 6 3" opcode_out [5:0] $end
$var reg 32 4" pc_plus4_out [31:0] $end
$var reg 5 5" rd_out [4:0] $end
$var reg 5 6" rs_out [4:0] $end
$var reg 5 7" rt_out [4:0] $end
$upscope $end
$scope module instrmem $end
$var wire 32 8" pcread [31:0] $end
$var reg 6 9" func [5:0] $end
$var reg 16 :" imm [15:0] $end
$var reg 6 ;" opcode [5:0] $end
$var reg 5 <" rd [4:0] $end
$var reg 5 =" rs [4:0] $end
$var reg 5 >" rt [4:0] $end
$upscope $end
$scope module leftshift $end
$var wire 32 ?" imm_32 [31:0] $end
$var wire 32 @" pc [31:0] $end
$var reg 32 A" out [31:0] $end
$upscope $end
$scope module mem_wb_reg_ut $end
$var wire 32 B" alu [31:0] $end
$var wire 1 ! ce $end
$var wire 1 " clk $end
$var wire 32 C" dmem [31:0] $end
$var wire 2 D" wb [1:0] $end
$var wire 5 E" writereg [4:0] $end
$var reg 32 F" alu_out [31:0] $end
$var reg 32 G" dmem_out [31:0] $end
$var reg 1 E memtoreg $end
$var reg 1 / regwrite $end
$var reg 5 H" writereg_out [4:0] $end
$upscope $end
$scope module mipsalu_ut $end
$var wire 32 I" a [31:0] $end
$var wire 4 J" aluctl [3:0] $end
$var wire 32 K" b [31:0] $end
$var wire 1 $ zero $end
$var reg 32 L" aluout [31:0] $end
$upscope $end
$scope module mux_bubble_ut $end
$var wire 9 M" ctrl [8:0] $end
$var wire 1 ) sel $end
$var reg 9 N" out [8:0] $end
$upscope $end
$scope module pc $end
$var wire 1 ! ce $end
$var wire 1 " clk $end
$var wire 1 ; pcwrite $end
$var wire 32 O" pcin [31:0] $end
$var reg 32 P" pcout [31:0] $end
$upscope $end
$scope module pc_mux $end
$var wire 32 Q" bradd [31:0] $end
$var wire 1 Q branch $end
$var wire 1 # zero $end
$var wire 32 R" pcplus4 [31:0] $end
$var reg 32 S" pc_next [31:0] $end
$upscope $end
$scope module plus4 $end
$var wire 32 T" pc [31:0] $end
$var reg 32 U" pcplus4_out [31:0] $end
$upscope $end
$scope module regfile $end
$var wire 1 ! ce $end
$var wire 1 " clk $end
$var wire 5 V" readreg1 [4:0] $end
$var wire 5 W" readreg2 [4:0] $end
$var wire 32 X" reg1 [31:0] $end
$var wire 32 Y" reg2 [31:0] $end
$var wire 1 / regwrite $end
$var wire 32 Z" writedata [31:0] $end
$var wire 5 [" writereg [4:0] $end
$upscope $end
$scope module sign_extend $end
$var wire 16 \" instr_16 [15:0] $end
$var reg 32 ]" instr_32 [31:0] $end
$upscope $end
$upscope $end
$upscope $end
$enddefinitions $end
#0
$dumpvars
bx ]"
bx \"
bx ["
bx Z"
bx Y"
bx X"
bx W"
bx V"
b100 U"
b0 T"
b100 S"
b100 R"
bx Q"
b0 P"
b100 O"
bx N"
bx M"
bx L"
bx K"
bx J"
bx I"
bx H"
bx G"
bx F"
bx E"
bx D"
bx C"
bx B"
bx A"
bx @"
bx ?"
b1000 >"
b0 ="
b0 <"
b1000 ;"
b101 :"
b101 9"
b0 8"
bx 7"
bx 6"
bx 5"
bx 4"
bx 3"
bx 2"
bx 1"
b101 0"
b101 /"
b1000 ."
b100 -"
b0 ,"
b0 +"
b1000 *"
bx )"
bx ("
bx '"
bx &"
bx %"
bx $"
bx #"
bx ""
bx !"
bx ~
bx }
bx |
bx {
bx z
bx y
bx x
bx w
bx v
bx u
bx t
bx s
bx r
bx q
bx p
bx o
bx n
bx m
bx l
bx k
bx j
bx i
bx h
xg
xf
xe
xd
xc
bx b
xa
x`
bx _
bx ^
bx ]
bx \
bx [
bx Z
bx Y
bx X
bx W
bx V
bx U
bx T
bx S
xR
xQ
bx P
bx O
b101 N
bx M
1L
b101 K
bx J
bx I
bx H
bx G
xF
xE
xD
b1000 C
bx B
bx A
b100 @
bx ?
bx >
b100 =
b0 <
1;
bx :
b0 9
bx 8
bx 7
bx 6
bx 5
bx 4
bx 3
bx 2
bx 1
x0
x/
b0 .
bx -
b1000 ,
bx +
bx *
1)
bx (
bx '
bx &
bx %
x$
x#
0"
1!
$end
#100000
b1000 =
b1000 O"
b1000 S"
b10001000 A
b10001000 N"
b111 K
b111 /"
b111 :"
b111 N
b111 0"
b111 9"
b1001 ,
b1001 *"
b1001 >"
b1000 @
b1000 -"
b1000 R"
b1000 U"
b101 I
b101 ~
b101 ]"
b10001000 O
b10001000 b
b10001000 x
b10001000 M"
1g
1`
0e
b0 _
0d
0c
0a
0f
b100 <
b100 8"
b100 P"
b100 T"
b100 >
b100 }
b100 4"
b101 J
b101 2"
b101 \"
b0 8
b0 |
b0 5"
b1000 +
b1000 t
b1000 y
b1000 7"
b1000 W"
b0 5
b0 {
b0 X"
b0 -
b0 u
b0 6"
b0 V"
b101 M
b101 1"
b1000 B
b1000 ^
b1000 3"
1"
#200000
0"
#300000
b1100 =
b1100 O"
b1100 S"
b10 W
b10 ]
b10 J"
b1000 Z
b1000 k
b111 X
b111 K"
b11000 P
b11000 A"
b11000 Q"
b111 I
b111 ~
b111 ]"
b1100 @
b1100 -"
b1100 R"
b1100 U"
b101000000100000 K
b101000000100000 /"
b101000000100000 :"
b100000 N
b100000 0"
b100000 9"
b1010 9
b1010 ,"
b1010 <"
b0 ,
b0 *"
b0 >"
b0 C
b0 ."
b0 ;"
b101 [
0$
b111 U
b111 o
b111 L"
00
b0 V
b0 \
b0 !"
1R
b0 G
b0 n
b0 w
b0 #"
b1 (
b1 l
b1 )"
b0 7
b0 %"
b1000 *
b1000 v
b1000 ("
b101 H
b101 ""
b101 ?"
b0 4
b0 &"
b0 I"
b100 ?
b100 $"
b100 @"
b1000 >
b1000 }
b1000 4"
b111 J
b111 2"
b111 \"
b1001 +
b1001 t
b1001 y
b1001 7"
b1001 W"
b111 M
b111 1"
b1000 <
b1000 8"
b1000 P"
b1000 T"
1"
#400000
0"
#500000
b101000000100000 U
b101000000100000 o
b101000000100000 L"
b101000000100000 X
b101000000100000 K"
b10000 =
b10000 O"
b10000 S"
b10000101 A
b10000101 N"
b1000000000000 K
b1000000000000 /"
b1000000000000 :"
b0 N
b0 0"
b0 9"
b10 9
b10 ,"
b10 <"
b1011 ,
b1011 *"
b1011 >"
b1111 C
b1111 ."
b1111 ;"
b10000 @
b10000 -"
b10000 R"
b10000 U"
b101000000100000 I
b101000000100000 ~
b101000000100000 ]"
b1001 Z
b1001 k
b100100 P
b100100 A"
b100100 Q"
b10000101 O
b10000101 b
b10000101 x
b10000101 M"
0`
b10 _
1f
b111 [
b1100 <
b1100 8"
b1100 P"
b1100 T"
b1100 >
b1100 }
b1100 4"
b101000000100000 J
b101000000100000 2"
b101000000100000 \"
b1010 8
b1010 |
b1010 5"
b0 3
b0 z
b0 Y"
b0 +
b0 t
b0 y
b0 7"
b0 W"
b100000 M
b100000 1"
b0 B
b0 ^
b0 3"
b1001 *
b1001 v
b1001 ("
b111 H
b111 ""
b111 ?"
b1000 ?
b1000 $"
b1000 @"
b1000 &
b1000 s
b1000 E"
b111 T
b111 j
b111 p
b111 B"
0#
0Q
0F
0D
b1 '
b1 r
b1 D"
1"
#600000
0"
#700000
b10100 =
b10100 O"
b10100 S"
1$
b0 U
b0 o
b0 L"
b10001110 A
b10001110 N"
b111 Y
b111 Z"
b1010 Z
b1010 k
b0 X
b0 K"
b10100000010001100 P
b10100000010001100 A"
b10100000010001100 Q"
b1000000000000 I
b1000000000000 ~
b1000000000000 ]"
b10100 @
b10100 -"
b10100 R"
b10100 U"
b1 K
b1 /"
b1 :"
b1 N
b1 0"
b1 9"
b0 9
b0 ,"
b0 <"
b1100 ,
b1100 *"
b1100 >"
b1000 C
b1000 ."
b1000 ;"
b100000 [
b10001110 O
b10001110 b
b10001110 x
b10001110 M"
1`
b11 _
0f
b1000 %
b1000 H"
b1000 ["
b111 S
b111 F"
1/
0E
b1001 &
b1001 s
b1001 E"
b101000000100000 T
b101000000100000 j
b101000000100000 p
b101000000100000 B"
10
b10 V
b10 \
b10 !"
0R
b1010 7
b1010 %"
b0 *
b0 v
b0 ("
b101000000100000 H
b101000000100000 ""
b101000000100000 ?"
b0 2
b0 m
b0 '"
b1100 ?
b1100 $"
b1100 @"
b10000 >
b10000 }
b10000 4"
b1000000000000 J
b1000000000000 2"
b1000000000000 \"
b10 8
b10 |
b10 5"
bx 3
bx z
bx Y"
b1011 +
b1011 t
b1011 y
b1011 7"
b1011 W"
b0 M
b0 1"
b1111 B
b1111 ^
b1111 3"
b10000 <
b10000 8"
b10000 P"
b10000 T"
1"
#800000
0"
#900000
b11000 =
b11000 O"
b11000 S"
0$
b10000000000000000 U
b10000000000000000 o
b10000000000000000 L"
b10001000 A
b10001000 N"
b110100000100000 K
b110100000100000 /"
b110100000100000 :"
b100000 N
b100000 0"
b100000 9"
b1101 9
b1101 ,"
b1101 <"
b0 ,
b0 *"
b0 >"
b0 C
b0 ."
b0 ;"
b11000 @
b11000 -"
b11000 R"
b11000 U"
b1 I
b1 ~
b1 ]"
b100 W
b100 ]
b100 J"
b100000000010000 P
b100000000010000 A"
b100000000010000 Q"
b101000000100000 Y
b101000000100000 Z"
b1011 Z
b1011 k
b1 X
b1 K"
b10001000 O
b10001000 b
b10001000 x
b10001000 M"
b0 _
b0 [
b10100 <
b10100 8"
b10100 P"
b10100 T"
b10100 >
b10100 }
b10100 4"
b1 J
b1 2"
b1 \"
b0 8
b0 |
b0 5"
b1100 +
b1100 t
b1100 y
b1100 7"
b1100 W"
b1 M
b1 1"
b1000 B
b1000 ^
b1000 3"
00
b11 V
b11 \
b11 !"
1R
b10 7
b10 %"
b1011 *
b1011 v
b1011 ("
b1000000000000 H
b1000000000000 ""
b1000000000000 ?"
bx 2
bx m
bx '"
b10000 ?
b10000 $"
b10000 @"
b1010 &
b1010 s
b1010 E"
b0 T
b0 j
b0 p
b0 B"
1#
b1001 %
b1001 H"
b1001 ["
b101000000100000 S
b101000000100000 F"
1"
#1000000
0"
#1100000
b110100000100000 X
b110100000100000 K"
b11100 =
b11100 O"
b11100 S"
b110100000100000 U
b110100000100000 o
b110100000100000 L"
b10000101 A
b10000101 N"
b10 W
b10 ]
b10 J"
b0 Y
b0 Z"
b1100 Z
b1100 k
b11000 P
b11000 A"
b11000 Q"
b110100000100000 I
b110100000100000 ~
b110100000100000 ]"
b11100 @
b11100 -"
b11100 R"
b11100 U"
b0 K
b0 /"
b0 :"
b0 N
b0 0"
b0 9"
b0 9
b0 ,"
b0 <"
b1010 ,
b1010 *"
b1010 >"
b1011 .
b1011 +"
b1011 ="
b101011 C
b101011 ."
b101011 ;"
b1 [
b10000101 O
b10000101 b
b10000101 x
b10000101 M"
0`
b10 _
1f
b1010 %
b1010 H"
b1010 ["
b0 S
b0 F"
b1011 &
b1011 s
b1011 E"
b10000000000000000 T
b10000000000000000 j
b10000000000000000 p
b10000000000000000 B"
0#
b0 V
b0 \
b0 !"
b0 7
b0 %"
b1100 *
b1100 v
b1100 ("
b1 H
b1 ""
b1 ?"
b10100 ?
b10100 $"
b10100 @"
b11000 >
b11000 }
b11000 4"
b110100000100000 J
b110100000100000 2"
b110100000100000 \"
b1101 8
b1101 |
b1101 5"
b0 3
b0 z
b0 Y"
b0 +
b0 t
b0 y
b0 7"
b0 W"
b100000 M
b100000 1"
b0 B
b0 ^
b0 3"
b11000 <
b11000 8"
b11000 P"
b11000 T"
1"
#1200000
0"
#1300000
b100000 =
b100000 O"
b100000 S"
1$
b0 U
b0 o
b0 L"
b1001000 A
b1001000 N"
b100011 C
b100011 ."
b100011 ;"
b100000 @
b100000 -"
b100000 R"
b100000 U"
b0 I
b0 ~
b0 ]"
b11010000010011000 P
b11010000010011000 A"
b11010000010011000 Q"
b10000000000000000 Y
b10000000000000000 Z"
b1101 Z
b1101 k
b0 X
b0 K"
b1001000 O
b1001000 b
b1001000 x
b1001000 M"
0g
1`
1e
b0 _
0f
b100000 [
b11100 <
b11100 8"
b11100 P"
b11100 T"
b11100 >
b11100 }
b11100 4"
b0 J
b0 2"
b0 \"
b0 8
b0 |
b0 5"
b1010 +
b1010 t
b1010 y
b1010 7"
b1010 W"
bx 5
bx {
bx X"
b1011 -
b1011 u
b1011 6"
b1011 V"
b0 M
b0 1"
b101011 B
b101011 ^
b101011 3"
10
b10 V
b10 \
b10 !"
0R
b1101 7
b1101 %"
b0 *
b0 v
b0 ("
b110100000100000 H
b110100000100000 ""
b110100000100000 ?"
b0 2
b0 m
b0 '"
b11000 ?
b11000 $"
b11000 @"
b1100 &
b1100 s
b1100 E"
b110100000100000 T
b110100000100000 j
b110100000100000 p
b110100000100000 B"
b1011 %
b1011 H"
b1011 ["
b10000000000000000 S
b10000000000000000 F"
1"
#1400000
0"
#1500000
b100100 =
b100100 O"
b100100 S"
b110101000 A
b110101000 N"
b110100000100000 Y
b110100000100000 Z"
b1010 Z
b1010 k
b11100 P
b11100 A"
b11100 Q"
b100100 @
b100100 -"
b100100 R"
b100100 U"
b110100000100100 K
b110100000100100 /"
b110100000100100 :"
b100100 N
b100100 0"
b100100 9"
b1101 9
b1101 ,"
b1101 <"
b1011 ,
b1011 *"
b1011 >"
b1010 .
b1010 +"
b1010 ="
b0 C
b0 ."
b0 ;"
b0 [
x$
bx U
bx o
bx L"
b110101000 O
b110101000 b
b110101000 x
b110101000 M"
1g
0e
1d
1c
b1100 %
b1100 H"
b1100 ["
b110100000100000 S
b110100000100000 F"
b1101 &
b1101 s
b1101 E"
b0 T
b0 j
b0 p
b0 B"
1#
00
b0 V
b0 \
b0 !"
1R
b100 G
b100 n
b100 w
b100 #"
b0 (
b0 l
b0 )"
b0 7
b0 %"
b1010 *
b1010 v
b1010 ("
b0 H
b0 ""
b0 ?"
bx 4
bx &"
bx I"
b11100 ?
b11100 $"
b11100 @"
b10000000000000000 5
b10000000000000000 {
b10000000000000000 X"
b100000 >
b100000 }
b100000 4"
b100011 B
b100011 ^
b100011 3"
b100000 <
b100000 8"
b100000 P"
b100000 T"
1"
#1600000
0"
#1700000
b110100000100100 X
b110100000100100 K"
b101000 =
b101000 O"
b101000 S"
b0 A
b0 N"
b110100000100101 K
b110100000100101 /"
b110100000100101 :"
b100101 N
b100101 0"
b100101 9"
b101000 @
b101000 -"
b101000 R"
b101000 U"
b110100000100100 I
b110100000100100 ~
b110100000100100 ]"
0L
0;
0)
b100000 P
b100000 A"
b100000 Q"
b0 Y
b0 Z"
b10000101 O
b10000101 b
b10000101 x
b10000101 M"
0`
b10 _
0d
0c
1f
0$
b10110100000100100 U
b10110100000100100 o
b10110100000100100 L"
b100100 <
b100100 8"
b100100 P"
b100100 T"
b100100 >
b100100 }
b100100 4"
b110100000100100 J
b110100000100100 2"
b110100000100100 \"
b1101 8
b1101 |
b1101 5"
b10000000000000000 3
b10000000000000000 z
b10000000000000000 Y"
b1011 +
b1011 t
b1011 y
b1011 7"
b1011 W"
b0 5
b0 {
b0 X"
b1010 -
b1010 u
b1010 6"
b1010 V"
b100100 M
b100100 1"
b0 B
b0 ^
b0 3"
b10 G
b10 n
b10 w
b10 #"
b11 (
b11 l
b11 )"
b10000000000000000 4
b10000000000000000 &"
b10000000000000000 I"
b100000 ?
b100000 $"
b100000 @"
b1010 &
b1010 s
b1010 E"
bx T
bx j
bx p
bx B"
x#
1D
b0 '
b0 r
b0 D"
b1101 %
b1101 H"
b1101 ["
b0 S
b0 F"
1"
#1800000
0"
#1900000
b10000101 A
b10000101 N"
1$
b0 W
b0 ]
b0 J"
1L
1;
1)
bx Y
bx Z"
b1101 Z
b1101 k
b0 X
b0 K"
b11010000010110100 P
b11010000010110100 A"
b11010000010110100 Q"
b100100 [
b0 U
b0 o
b0 L"
b1010 %
b1010 H"
b1010 ["
bx S
bx F"
0/
b10110100000100100 T
b10110100000100100 j
b10110100000100100 p
b10110100000100100 B"
0#
1F
0D
b11 '
b11 r
b11 D"
10
b10 V
b10 \
b10 !"
0R
b0 G
b0 n
b0 w
b0 #"
b1 (
b1 l
b1 )"
b1101 7
b1101 %"
b1011 *
b1011 v
b1011 ("
b110100000100100 H
b110100000100100 ""
b110100000100100 ?"
b10000000000000000 2
b10000000000000000 m
b10000000000000000 '"
b0 4
b0 &"
b0 I"
b100100 ?
b100100 $"
b100100 @"
1"
#2000000
0"
#2100000
b101100 =
b101100 O"
b101100 S"
b101100 @
b101100 -"
b101100 R"
b101100 U"
b101000000100000 K
b101000000100000 /"
b101000000100000 :"
b100000 N
b100000 0"
b100000 9"
b1010 9
b1010 ,"
b1010 <"
b1000 ,
b1000 *"
b1000 >"
b110100000100101 I
b110100000100101 ~
b110100000100101 ]"
b101000 <
b101000 8"
b101000 P"
b101000 T"
b101000 >
b101000 }
b101000 4"
b110100000100101 J
b110100000100101 2"
b110100000100101 \"
b100101 M
b100101 1"
b1101 &
b1101 s
b1101 E"
b0 T
b0 j
b0 p
b0 B"
1#
0F
b1 '
b1 r
b1 D"
b10110100000100100 S
b10110100000100100 F"
1/
1E
1"
#2200000
0"
#2300000
b110000 =
b110000 O"
b110000 S"
b1 W
b1 ]
b1 J"
b0 Y
b0 Z"
b11010000010111100 P
b11010000010111100 A"
b11010000010111100 Q"
b101000000100000 I
b101000000100000 ~
b101000000100000 ]"
b100100000100010 K
b100100000100010 /"
b100100000100010 :"
b100010 N
b100010 0"
b100010 9"
b1001 9
b1001 ,"
b1001 <"
b1100 ,
b1100 *"
b1100 >"
b1001 .
b1001 +"
b1001 ="
b110000 @
b110000 -"
b110000 R"
b110000 U"
b100101 [
b1101 %
b1101 H"
b1101 ["
b0 S
b0 F"
0E
b110100000100101 H
b110100000100101 ""
b110100000100101 ?"
b101000 ?
b101000 $"
b101000 @"
bx 5
bx {
bx X"
b101100 >
b101100 }
b101100 4"
b101000000100000 J
b101000000100000 2"
b101000000100000 \"
b1010 8
b1010 |
b1010 5"
b111 3
b111 z
b111 Y"
b1000 +
b1000 t
b1000 y
b1000 7"
b1000 W"
b100000 M
b100000 1"
b101100 <
b101100 8"
b101100 P"
b101100 T"
1"
#2400000
0"
#2500000
b110100 =
b110100 O"
b110100 S"
b10 W
b10 ]
b10 J"
b110100 @
b110100 -"
b110100 R"
b110100 U"
b100 K
b100 /"
b100 :"
b100 N
b100 0"
b100 9"
b0 9
b0 ,"
b0 <"
b1011 ,
b1011 *"
b1011 >"
b1011 .
b1011 +"
b1011 ="
b1000 C
b1000 ."
b1000 ;"
b100100000100010 I
b100100000100010 ~
b100100000100010 ]"
b1010 Z
b1010 k
bx X
bx K"
b10100000010101100 P
b10100000010101100 A"
b10100000010101100 Q"
b100000 [
x$
bx U
bx o
bx L"
b110000 <
b110000 8"
b110000 P"
b110000 T"
b110000 >
b110000 }
b110000 4"
b100100000100010 J
b100100000100010 2"
b100100000100010 \"
b1001 8
b1001 |
b1001 5"
b110100000100000 3
b110100000100000 z
b110100000100000 Y"
b1100 +
b1100 t
b1100 y
b1100 7"
b1100 W"
b101000000100000 5
b101000000100000 {
b101000000100000 X"
b1001 -
b1001 u
b1001 6"
b1001 V"
b100010 M
b100010 1"
b1010 7
b1010 %"
b1000 *
b1000 v
b1000 ("
b101000000100000 H
b101000000100000 ""
b101000000100000 ?"
b111 2
b111 m
b111 '"
bx 4
bx &"
bx I"
b101100 ?
b101100 $"
b101100 @"
1"
#2600000
0"
#2700000
b111000 =
b111000 O"
b111000 S"
1$
b0 U
b0 o
b0 L"
b110 W
b110 ]
b110 J"
b10001000 A
b10001000 N"
b1001 Z
b1001 k
b101000000100000 X
b101000000100000 K"
b10010000010111000 P
b10010000010111000 A"
b10010000010111000 Q"
b100 I
b100 ~
b100 ]"
b0 K
b0 /"
b0 :"
b0 N
b0 0"
b0 9"
b1010 ,
b1010 *"
b1010 >"
b101011 C
b101011 ."
b101011 ;"
b111000 @
b111000 -"
b111000 R"
b111000 U"
b100010 [
b10001000 O
b10001000 b
b10001000 x
b10001000 M"
1`
b0 _
0f
b1010 &
b1010 s
b1010 E"
bx T
bx j
bx p
bx B"
x#
b1001 7
b1001 %"
b1100 *
b1100 v
b1100 ("
b100100000100010 H
b100100000100010 ""
b100100000100010 ?"
b110100000100000 2
b110100000100000 m
b110100000100000 '"
b101000000100000 4
b101000000100000 &"
b101000000100000 I"
b110000 ?
b110000 $"
b110000 @"
b110100 >
b110100 }
b110100 4"
b100 J
b100 2"
b100 \"
b0 8
b0 |
b0 5"
b10000000000000000 3
b10000000000000000 z
b10000000000000000 Y"
b1011 +
b1011 t
b1011 y
b1011 7"
b1011 W"
b10000000000000000 5
b10000000000000000 {
b10000000000000000 X"
b1011 -
b1011 u
b1011 6"
b1011 V"
b100 M
b100 1"
b1000 B
b1000 ^
b1000 3"
b110100 <
b110100 8"
b110100 P"
b110100 T"
1"
#2800000
0"
#2900000
b111100 =
b111100 O"
b111100 S"
b1001000 A
b1001000 N"
b111100 @
b111100 -"
b111100 R"
b111100 U"
b110100000101010 K
b110100000101010 /"
b110100000101010 :"
b101010 N
b101010 0"
b101010 9"
b1101 9
b1101 ,"
b1101 <"
b1100 ,
b1100 *"
b1100 >"
b1001 .
b1001 +"
b1001 ="
b0 C
b0 ."
b0 ;"
b0 I
b0 ~
b0 ]"
b10 W
b10 ]
b10 J"
b1000100 P
b1000100 A"
b1000100 Q"
bx Y
bx Z"
b1011 Z
b1011 k
b0 X
b0 K"
b1001000 O
b1001000 b
b1001000 x
b1001000 M"
0g
1e
b100 [
0$
b10000000000000000 U
b10000000000000000 o
b10000000000000000 L"
b111000 <
b111000 8"
b111000 P"
b111000 T"
b111000 >
b111000 }
b111000 4"
b0 J
b0 2"
b0 \"
bx 3
bx z
bx Y"
b1010 +
b1010 t
b1010 y
b1010 7"
b1010 W"
b0 M
b0 1"
b101011 B
b101011 ^
b101011 3"
00
b0 V
b0 \
b0 !"
1R
b0 7
b0 %"
b1011 *
b1011 v
b1011 ("
b100 H
b100 ""
b100 ?"
b10000000000000000 2
b10000000000000000 m
b10000000000000000 '"
b10000000000000000 4
b10000000000000000 &"
b10000000000000000 I"
b110100 ?
b110100 $"
b110100 @"
b1001 &
b1001 s
b1001 E"
b0 T
b0 j
b0 p
b0 B"
1#
b1010 %
b1010 H"
b1010 ["
bx S
bx F"
1"
#3000000
0"
#3100000
b10110100000101010 U
b10110100000101010 o
b10110100000101010 L"
b110100000101010 X
b110100000101010 K"
b1000000 =
b1000000 O"
b1000000 S"
b10000101 A
b10000101 N"
b0 Y
b0 Z"
b1010 Z
b1010 k
b111000 P
b111000 A"
b111000 Q"
b110100000101010 I
b110100000101010 ~
b110100000101010 ]"
b1111111111111000 K
b1111111111111000 /"
b1111111111111000 :"
b111000 N
b111000 0"
b111000 9"
b11111 9
b11111 ,"
b11111 <"
b0 ,
b0 *"
b0 >"
b1101 .
b1101 +"
b1101 ="
b100 C
b100 ."
b100 ;"
b1000000 @
b1000000 -"
b1000000 R"
b1000000 U"
b0 [
b10000101 O
b10000101 b
b10000101 x
b10000101 M"
1g
0`
0e
b10 _
1f
b1001 %
b1001 H"
b1001 ["
b0 S
b0 F"
b1011 &
b1011 s
b1011 E"
b10000000000000000 T
b10000000000000000 j
b10000000000000000 p
b10000000000000000 B"
0#
b100 G
b100 n
b100 w
b100 #"
b0 (
b0 l
b0 )"
b1010 *
b1010 v
b1010 ("
b0 H
b0 ""
b0 ?"
bx 2
bx m
bx '"
b111000 ?
b111000 $"
b111000 @"
b111100 >
b111100 }
b111100 4"
b110100000101010 J
b110100000101010 2"
b110100000101010 \"
b1101 8
b1101 |
b1101 5"
b110100000100000 3
b110100000100000 z
b110100000100000 Y"
b1100 +
b1100 t
b1100 y
b1100 7"
b1100 W"
b101000000100000 5
b101000000100000 {
b101000000100000 X"
b1001 -
b1001 u
b1001 6"
b1001 V"
b101010 M
b101010 1"
b0 B
b0 ^
b0 3"
b111100 <
b111100 8"
b111100 P"
b111100 T"
1"
#3200000
0"
